{
 "0": {
  "ID": 0,
  "URL": "https://www.pcspecialist.co.uk/",
  "Title": "PCSPECIALIST - Top Spec Custom PCs & Laptops Built to Order",
  "Content": "Manufacturer of performance custom computers and laptops. Customise your ideal gaming PC or laptop using our advanced configurator.",
  "Listings": ""
 },
 "1": {
  "ID": 1,
  "URL": "https://www.pcspecialist.co.uk/liquid-series/",
  "Title": "PCSPECIALIST - Liquid Series\u00ae - The Ultimate Performance Liquid Cooled PCs!",
  "Content": "Liquid Series\u00ae PCs from PCSpecialist offer the highest level of technology and engineering in a computer, make your room look amazing and and keep your components running cool and quiet.",
  "Listings": "Why Choose Liquid Series\u00ae? "
 },
 "2": {
  "ID": 2,
  "URL": "https://www.pcspecialist.co.uk/computers/intel-nuc-pc-i7-Skull/",
  "Title": "PCSPECIALIST - Configure the Intel Nuc PC i7 Skull to your ideal requirements.",
  "Content": "PCSpecialist is an award winning manufacturer of high quality custom PCs. Configure the Intel Nuc PC i7 Skull to your ideal requirements.",
  "Listings": "system summary The Intel NUC III i7: SSD 1) choose your core components Javascript is disabled on your computer. Please enable javascript before proceeding. 2) choose your operating system and software 3) peripherals & accessories 4) delivery & services "
 },
 "3": {
  "ID": 3,
  "URL": "https://www.pcspecialist.co.uk/computers/intel-nucIII-pc-i5-ssd/",
  "Title": "PCSPECIALIST - Configure the Intel NucIII PC i5 Ssd to your ideal requirements.",
  "Content": "PCSpecialist is an award winning manufacturer of high quality custom PCs. Configure the Intel NucIII PC i5 Ssd to your ideal requirements.",
  "Listings": "system summary The Intel NUC III i5: SSD 1) choose your core components Javascript is disabled on your computer. Please enable javascript before proceeding. 2) choose your operating system and software 3) peripherals & accessories 4) delivery & services "
 },
 "4": {
  "ID": 4,
  "URL": "https://www.pcspecialist.co.uk/computers/intel-nucIII-pc-i3-ssd/",
  "Title": "PCSPECIALIST - Configure the Intel NucIII PC i3 Ssd to your ideal requirements.",
  "Content": "PCSpecialist is an award winning manufacturer of high quality custom PCs. Configure the Intel NucIII PC i3 Ssd to your ideal requirements.",
  "Listings": "system summary The Intel NUC III i3: SSD 1) choose your core components Javascript is disabled on your computer. Please enable javascript before proceeding. 2) choose your operating system and software 3) peripherals & accessories 4) delivery & services "
 },
 "5": {
  "ID": 5,
  "URL": "https://www.pcspecialist.co.uk/computers/intel-nucII-pc-i7-hdd/",
  "Title": "PCSPECIALIST - Configure the Intel NucII PC i7 Hdd to your ideal requirements.",
  "Content": "PCSpecialist is an award winning manufacturer of high quality custom PCs. Configure the Intel NucII PC i7 Hdd to your ideal requirements.",
  "Listings": "system summary The Intel NUC II i7: HDD 1) choose your core components Javascript is disabled on your computer. Please enable javascript before proceeding. 2) hard drives, optical storage & memory card reader 3) choose your operating system and software 4) peripherals & accessories 5) delivery & services "
 },
 "6": {
  "ID": 6,
  "URL": "https://www.pcspecialist.co.uk/computers/intel-nucIII-pc-i5-hdd/",
  "Title": "PCSPECIALIST - Configure the Intel NucIII PC i5 Hdd to your ideal requirements.",
  "Content": "PCSpecialist is an award winning manufacturer of high quality custom PCs. Configure the Intel NucIII PC i5 Hdd to your ideal requirements.",
  "Listings": "system summary The Intel NUC III i5: HDD 1) choose your core components Javascript is disabled on your computer. Please enable javascript before proceeding. 2) hard drives, optical storage & memory card reader 3) choose your operating system and software 4) peripherals & accessories 5) delivery & services "
 },
 "7": {
  "ID": 7,
  "URL": "https://www.pcspecialist.co.uk/intel-mini-pcs/",
  "Title": "PCSPECIALIST - Performance Intel Based Small Form Factor PCs",
  "Content": "Configure a small form factor PC featuring high performance Intel processors. Small footprint means you can save space without losing power.",
  "Listings": ""
 },
 "8": {
  "ID": 8,
  "URL": "https://www.pcspecialist.co.uk/computers/amd-workstation/",
  "Title": "PCSPECIALIST - Configure the AMD Workstation to your ideal requirements.",
  "Content": "PCSpecialist is an award winning manufacturer of high quality custom PCs. Configure the AMD Workstation to your ideal requirements.",
  "Listings": "system summary Javascript is disabled on your computer. Please enable javascript before proceeding. 1) select a case - click a case to enlarge and view info 2) choose your core components 3) hard drives, optical storage & memory card reader 4) power and cooling 5) system refinements 6) choose your operating system and software 7) peripherals & accessories 8) delivery & services "
 },
 "9": {
  "ID": 9,
  "URL": "https://www.pcspecialist.co.uk/computers/intel-nucIII-pc-i3-hdd/",
  "Title": "PCSPECIALIST - Configure the Intel NucIII PC i3 Hdd to your ideal requirements.",
  "Content": "PCSpecialist is an award winning manufacturer of high quality custom PCs. Configure the Intel NucIII PC i3 Hdd to your ideal requirements.",
  "Listings": "system summary The Intel NUC III i3: HDD 1) choose your core components Javascript is disabled on your computer. Please enable javascript before proceeding. 2) hard drives, optical storage & memory card reader 3) choose your operating system and software 4) peripherals & accessories 5) delivery & services "
 },
 "10": {
  "ID": 10,
  "URL": "https://www.pcspecialist.co.uk/computers/amd-bulldozer-extreme-pc/",
  "Title": "PCSPECIALIST - Configure the AMD Bulldozer Extreme PC to your ideal requirements.",
  "Content": "PCSpecialist is an award winning manufacturer of high quality custom PCs. Configure the AMD Bulldozer Extreme PC to your ideal requirements.",
  "Listings": "system summary Javascript is disabled on your computer. Please enable javascript before proceeding. 1) select a case - click a case to enlarge and view info 2) choose your core components 3) hard drives, optical storage & memory card reader 4) power and cooling 5) system refinements 6) choose your operating system and software 7) peripherals & accessories 8) delivery & services "
 },
 "11": {
  "ID": 11,
  "URL": "https://www.pcspecialist.co.uk/computers/amd-bulldozer-top-spec-pc/",
  "Title": "PCSPECIALIST - Configure the AMD Bulldozer Top Spec PC to your ideal requirements.",
  "Content": "PCSpecialist is an award winning manufacturer of high quality custom PCs. Configure the AMD Bulldozer Top Spec PC to your ideal requirements.",
  "Listings": "system summary Javascript is disabled on your computer. Please enable javascript before proceeding. 1) select a case - click a case to enlarge and view info 2) choose your core components 3) hard drives, optical storage & memory card reader 4) power and cooling 5) system refinements 6) choose your operating system and software 7) peripherals & accessories 8) delivery & services "
 },
 "12": {
  "ID": 12,
  "URL": "https://www.pcspecialist.co.uk/computers/amd-fm2-richland/",
  "Title": "PCSPECIALIST - Configure the AMD Fm2 Richland to your ideal requirements.",
  "Content": "PCSpecialist is an award winning manufacturer of high quality custom PCs. Configure the AMD Fm2 Richland to your ideal requirements.",
  "Listings": "system summary Javascript is disabled on your computer. Please enable javascript before proceeding. 1) select a case - click a case to enlarge and view info 2) choose your core components 3) hard drives, optical storage & memory card reader 4) power and cooling 5) system refinements 6) choose your operating system and software 7) peripherals & accessories 8) delivery & services "
 },
 "13": {
  "ID": 13,
  "URL": "https://www.pcspecialist.co.uk/amd-computers/",
  "Title": "PCSPECIALIST - AMD PC, AMD Computers, Build Your Own AMD PC",
  "Content": "PCSpecialist is an award winning UK based manufacturer of high quality custom PCs. Design a PC to your requirements.",
  "Listings": ""
 },
 "14": {
  "ID": 14,
  "URL": "https://www.pcspecialist.co.uk/computers/intel-x99-workstation/",
  "Title": "PCSPECIALIST - Configure the Intel X99 Workstation to your ideal requirements.",
  "Content": "PCSpecialist is an award winning manufacturer of high quality custom PCs. Configure the Intel X99 Workstation to your ideal requirements.",
  "Listings": "system summary Javascript is disabled on your computer. Please enable javascript before proceeding. 1) select a case - click a case to enlarge and view info 2) choose your core components 3) hard drives, optical storage & memory card reader 4) power and cooling 5) system refinements 6) choose your operating system and software 7) peripherals & accessories 8) delivery & services "
 },
 "15": {
  "ID": 15,
  "URL": "https://www.pcspecialist.co.uk/computers/intel-skylake-workstation/",
  "Title": "PCSPECIALIST - Configure the Intel Skylake Workstation to your ideal requirements.",
  "Content": "PCSpecialist is an award winning manufacturer of high quality custom PCs. Configure the Intel Skylake Workstation to your ideal requirements.",
  "Listings": "system summary Javascript is disabled on your computer. Please enable javascript before proceeding. 1) select a case - click a case to enlarge and view info 2) choose your core components 3) hard drives, optical storage & memory card reader 4) power and cooling 5) system refinements 6) choose your operating system and software 7) peripherals & accessories 8) delivery & services "
 },
 "16": {
  "ID": 16,
  "URL": "https://www.pcspecialist.co.uk/view/Vortex-1250-Gaming-PC/",
  "Title": "PCSPECIALIST - Configure the Vortex 1250 Gaming PC to your ideal requirements.",
  "Content": "PCSpecialist is an award winning manufacturer of high quality custom PCs. Configure the Vortex 1250 Gaming PC to your ideal requirements.",
  "Listings": "system summary Javascript is disabled on your computer. Please enable javascript before proceeding. our pre-designed system specification 1) select a case - click a case to enlarge and view info 2) choose your core components 3) hard drives, optical storage & memory card reader 4) power and cooling 5) system refinements 6) choose your operating system and software 7) peripherals & accessories 8) delivery & services "
 },
 "17": {
  "ID": 17,
  "URL": "https://www.pcspecialist.co.uk/pc-help/103/",
  "Title": "PCSPECIALIST - PC Help, PC Help Online, Buying a PC Advice, New PC Advice, Buying PC Advice, Buy PC Advice, Free PC Help",
  "Content": "Find help on buying a new PC using our helpful and un-biased advice page.",
  "Listings": ""
 },
 "18": {
  "ID": 18,
  "URL": "https://www.pcspecialist.co.uk/privacy-policy/",
  "Title": "PCSPECIALIST - Privacy Policy",
  "Content": "General Privacy Policy for the use of this website.",
  "Listings": ""
 },
 "19": {
  "ID": 19,
  "URL": "https://www.pcspecialist.co.uk/weee-directive/",
  "Title": "PCSPECIALIST - Our commitment to the WEEE Directive",
  "Content": "WEEE is waste electrical and electronic equipment. It is end-of-life electrical and electronic equipment and covers virtually everything with a plug or battery. It is classed as either household or non-household WEEE.",
  "Listings": ""
 },
 "20": {
  "ID": 20,
  "URL": "https://www.pcspecialist.co.uk/sitemap/",
  "Title": "PCSPECIALIST - Sitemap",
  "Content": "Use our website map to help navigate this website.",
  "Listings": ""
 },
 "21": {
  "ID": 21,
  "URL": "https://www.pcspecialist.co.uk/disclaimer/",
  "Title": "PCSPECIALIST - Disclaimer",
  "Content": "General disclaimer for the use of this website.",
  "Listings": ""
 },
 "22": {
  "ID": 22,
  "URL": "https://www.pcspecialist.co.uk/right-to-cancel/",
  "Title": "PCSPECIALIST - Right to Cancel",
  "Content": "Right to Cancel",
  "Listings": ""
 },
 "23": {
  "ID": 23,
  "URL": "https://www.pcspecialist.co.uk/terms/returns-policy/",
  "Title": "PCSPECIALIST - Terms & Conditions",
  "Content": "General Terms & Conditions of business.",
  "Listings": ""
 },
 "24": {
  "ID": 24,
  "URL": "https://www.pcspecialist.co.uk/site-terms/",
  "Title": "PCSPECIALIST - Website Terms",
  "Content": "General website terms for the use of this website.",
  "Listings": ""
 },
 "25": {
  "ID": 25,
  "URL": "https://www.pcspecialist.co.uk/terms/",
  "Title": "PCSPECIALIST - Terms & Conditions",
  "Content": "General Terms & Conditions of business.",
  "Listings": ""
 },
 "26": {
  "ID": 26,
  "URL": "https://www.pcspecialist.co.uk/help-me-choose/",
  "Title": "PCSPECIALIST - Jargon Free Configurator",
  "Content": "Not sure what components to put in your PC, and don't have time to research? Use our jargon free configurator to create your ideal computer without any confusion.",
  "Listings": "1) select a case - click each case to enlarge and view info "
 },
 "27": {
  "ID": 27,
  "URL": "https://www.pcspecialist.co.uk/gaming-desktops/",
  "Title": "PCSPECIALIST - Bespoke Gaming Desktops Built to order",
  "Content": "Design a bespoke gaming desktop and we will assemble it to your requirements. Creating a bespoke configuration will enable you to maximise performance for your budget.",
  "Listings": "Overwatch DOTA 2 Grand Theft Auto V League of Legends Minecraft The Witcher 3 CS: Global Offensive Battlefield 1 World of Warcraft "
 },
 "28": {
  "ID": 28,
  "URL": "https://www.pcspecialist.co.uk/desktop-pcs/top-spec-mini-pcs/",
  "Title": "PCSPECIALIST - Configure a high performance Top Spec Mini PC",
  "Content": "Configure a high performance Top Spec Mini PC at PCSpecialist. Your perfect Top Spec Mini PC is just a few simple steps away.",
  "Listings": "Aura Hush 350 Vengeance V450 Titan Mini 550 Aura Hush 650 Titan Mini 1000 Titan Mini 750 "
 },
 "29": {
  "ID": 29,
  "URL": "https://www.pcspecialist.co.uk/custom-laptops/nvidia-geforce-laptops/",
  "Title": "PCSPECIALIST - Configure a high performance Nvidia Geforce Laptop",
  "Content": "Configure a high performance Nvidia Geforce Laptop at PCSpecialist. Your perfect Nvidia Geforce Laptop is just a few simple steps away.",
  "Listings": "CosmosIV 950M Cosmos 800 Cosmos LX Optimus VI 17 Optimus Nebula Defiance 14 950 Optimus VI 960 CosmosIV Pro CosmosIV 17 950M Defiance III 1060 Defiance S17 Defiance III S G SYNC Elite Defiance III 1070 Defiance 17 G SYNC Pro 4K 2100 G SYNC Ultra "
 },
 "30": {
  "ID": 30,
  "URL": "https://www.pcspecialist.co.uk/aio-pcs/all-in-one-computers/",
  "Title": "PCSPECIALIST - Configure a high performance All In One Computer",
  "Content": "Configure a high performance All In One Computer at PCSpecialist. Your perfect All In One Computer is just a few simple steps away.",
  "Listings": "Vanguard II LE Vanguard II I5 Vanguard II Fusion II HD Maestro II Pro Fusion II Evo Maestro II XE Fusion II Pro Maestro II Ultima VanGuard II Pro "
 },
 "31": {
  "ID": 31,
  "URL": "https://www.pcspecialist.co.uk/desktop-pcs/gaming-pcs/",
  "Title": "PCSPECIALIST - Configure a high performance Gaming PC",
  "Content": "Configure a high performance Gaming PC at PCSpecialist. Your perfect Gaming PC is just a few simple steps away.",
  "Listings": "Sli Ready S550 PC Fusion 650 Gaming PC Vortex 650 Gaming PC Xfire Ready X800 PC Eyefinity 850 PC Vortex 950 Gaming PC SLI Ready S1000 PC Sli Ready 950 PC Fusion 1150 Gaming PC Vortex 1000 Gaming PC Fsx 1000 PC Fusion 1600 Gaming PC SLI Ready S1100 PC Vortex 2000 Gaming PC "
 },
 "32": {
  "ID": 32,
  "URL": "https://www.pcspecialist.co.uk/desktop-pcs/multiscreen-computers/",
  "Title": "PCSPECIALIST - Configure a high performance Multiscreen Computer",
  "Content": "Configure a high performance Multiscreen Computer at PCSpecialist. Your perfect Multiscreen Computer is just a few simple steps away.",
  "Listings": "Eyefinity 850 PC Eyefinity 1000 PC Eyefinity 1150 PC Eyefinity 1350 PC Eyefinity 2000 PC Eyefinity 1800 PC "
 },
 "33": {
  "ID": 33,
  "URL": "https://www.pcspecialist.co.uk/desktop-pcs/flight-simulator-computers/",
  "Title": "PCSPECIALIST - Configure a high performance Flight Simulator Computer",
  "Content": "Configure a high performance Flight Simulator Computer at PCSpecialist. Your perfect Flight Simulator Computer is just a few simple steps away.",
  "Listings": "Fsx 500 PC Fsx 700 PC Fsx 1150 PC Fsx 850 PC Fsx 1000 PC Fsx 1500 PC "
 },
 "34": {
  "ID": 34,
  "URL": "https://www.pcspecialist.co.uk/desktop-pcs/pro-audio-computers/",
  "Title": "PCSPECIALIST - Configure a high performance Pro Audio Computer",
  "Content": "Configure a high performance Pro Audio Computer at PCSpecialist. Your perfect Pro Audio Computer is just a few simple steps away.",
  "Listings": "DAW 1500 PC DAW 1000 PC DAW 2000 PC "
 },
 "35": {
  "ID": 35,
  "URL": "https://www.pcspecialist.co.uk/desktop-pcs/video-editing-computers/",
  "Title": "PCSPECIALIST - Configure a high performance Video Editing Computer",
  "Content": "Configure a high performance Video Editing Computer at PCSpecialist. Your perfect Video Editing Computer is just a few simple steps away.",
  "Listings": "Editing V400 PC Editing V500 PC Editing V600 PC Editing V700 PC Editing V850 PC Editing V1000 PC "
 },
 "36": {
  "ID": 36,
  "URL": "https://www.pcspecialist.co.uk/desktop-pcs/home-office-pcs/",
  "Title": "PCSPECIALIST - Configure a high performance Home Office PC",
  "Content": "Configure a high performance Home Office PC at PCSpecialist. Your perfect Home Office PC is just a few simple steps away.",
  "Listings": "Aurora 300 PC Aurora 400 PC Aurora 450 PC Aurora 500 PC Aurora 600 PC Aurora 700 PC "
 },
 "37": {
  "ID": 37,
  "URL": "https://www.pcspecialist.co.uk/custom-built-pc/",
  "Title": "PCSPECIALIST - Design your ideal Custom Built PC",
  "Content": "Design your ideal Custom Built Computer and we'll build it to your exact requirements. Huge range of components available.",
  "Listings": ""
 },
 "38": {
  "ID": 38,
  "URL": "https://www.pcspecialist.co.uk/desktop-pcs/workstation-computers/",
  "Title": "PCSPECIALIST - Configure a high performance Workstation Computer",
  "Content": "Configure a high performance Workstation Computer at PCSpecialist. Your perfect Workstation Computer is just a few simple steps away.",
  "Listings": "Pro CAD 600 PC Pro CAD 700 PC Pro CAD 1000 PC NVS I5 315 HEX S K620i PHX K420 I7 Pro CAD 1200 PC NVS I7 510 HEX S K2200X HEX P K2200i PHX K2200 I7 K HEX S M4000X NVS I7X 315 NVS I7X 510 Pro CAD 2000 PC PHX M4000 I7 X HEX P K2200X HEX S K5000X Pro CAD 3000 PC HEX P M4000X HEX Z M4000i HEX Z M4000X HEX S K620i K40 HEX P M5000X HEX Z M5000X PHX M5000 I7 X HEX S K2200X K40 HEX P M4000X K40 HEX S M6000X HEX P M5000X K40 HEX Z M6000X HEX Z M5000X K40 HEX Z M6000X K40 HEX Ultra M5000X HEX Ultra M6000X "
 },
 "39": {
  "ID": 39,
  "URL": "https://www.pcspecialist.co.uk/buy-computers/",
  "Title": "PCSPECIALIST - Buy Computers Configured to Your Requirements",
  "Content": "At PCSpecialist your can buy computers configured exactly as you wish, from the case right through to the processor. Only pay for what you need.",
  "Listings": "Buy Computers "
 },
 "40": {
  "ID": 40,
  "URL": "https://www.pcspecialist.co.uk/custom-laptops/intel-thin-sleek-laptops/",
  "Title": "PCSPECIALIST - Configure a high performance Intel Thin Sleek Laptop",
  "Content": "Configure a high performance Intel Thin Sleek Laptop at PCSpecialist. Your perfect Intel Thin Sleek Laptop is just a few simple steps away.",
  "Listings": "UltraNote 14 370 Genesis 380 Genesis 320 Genesis 450 Genesis 500 Genesis 530 UltraNote I3 500 UltraNote 14 550 UltraNote I3 575 UltraNote 15 600 "
 },
 "41": {
  "ID": 41,
  "URL": "https://www.pcspecialist.co.uk/build-your-own-laptop/",
  "Title": "PCSPECIALIST - Build a Laptop, Custom Build Laptop, Build a Laptop Online, Build Laptop, Build Your Own Notebook, Laptop Builder, Build a Notebook, Build Notebook",
  "Content": "PCSpecialist is a manufacturer where you can build your own laptop for home, business and education. Build your own laptop in just a few simple steps.",
  "Listings": "Build Your Own Laptop 10.1\" BumbleBee 2-in-1 15.6\" Genesis V 14\" UltraNote IV LE 17.3\" Genesis V 14\" UltraNote IV 15.6\" UltraNote IV 15.6\" Cosmos VI 15.6\" Optimus VIII 17.3\" Cosmos VI 17.3\" Optimus VIII 14\" Defiance III 15.6\" Defiance III 15.6\" Proteus IV 17.3\" Proteus IV 17.3\" Defiance III 15.6\" Octane III 17.3\" Octane III 17.3\" Vortex VI "
 },
 "42": {
  "ID": 42,
  "URL": "https://www.pcspecialist.co.uk/desktop-pcs/4k-ready-pcs/",
  "Title": "PCSPECIALIST - Configure a high performance 4k Ready PC",
  "Content": "Configure a high performance 4k Ready PC at PCSpecialist. Your perfect 4k Ready PC is just a few simple steps away.",
  "Listings": "Fusion 1300 Gaming PC Vortex 1250 Gaming PC Vortex 1400 Gaming PC Fusion 1600 Gaming PC Vortex 1600 Gaming PC Vortex 2000 Gaming PC "
 },
 "43": {
  "ID": 43,
  "URL": "https://www.pcspecialist.co.uk/desktop-pcs/geforce-gtx-gaming-pc/",
  "Title": "PCSPECIALIST - Configure a high performance Geforce GTX Gaming PC",
  "Content": "Configure a high performance Geforce GTX Gaming PC at PCSpecialist. Your perfect Geforce GTX Gaming PC is just a few simple steps away.",
  "Listings": "Vortex 650 Gaming PC Editing V850 PC SLI Ready S1000 PC Vortex GX 230 Vortex 1000 Gaming PC Vortex 1400 Gaming PC SLI Ready 1600 PC Vortex 2000 Gaming PC "
 },
 "44": {
  "ID": 44,
  "URL": "https://www.pcspecialist.co.uk/desktop-pcs/amd-gaming-computers/",
  "Title": "PCSPECIALIST - Configure a high performance AMD Gaming Computer",
  "Content": "Configure a high performance AMD Gaming Computer at PCSpecialist. Your perfect AMD Gaming Computer is just a few simple steps away.",
  "Listings": "Fusion 450 Gaming PC Fusion 650 Gaming PC Fusion 950 Gaming PC Fusion 1150 Gaming PC Fusion 1300 Gaming PC Fusion 1600 Gaming PC "
 },
 "45": {
  "ID": 45,
  "URL": "https://www.pcspecialist.co.uk/desktop-pcs/intel-gaming-computers/",
  "Title": "PCSPECIALIST - Configure a high performance Intel Gaming Computer",
  "Content": "Configure a high performance Intel Gaming Computer at PCSpecialist. Your perfect Intel Gaming Computer is just a few simple steps away.",
  "Listings": "Vortex 650 Gaming PC Vortex 950 Gaming PC Vortex 1250 Gaming PC Vortex 1000 Gaming PC Vortex 1600 Gaming PC Vortex 2000 Gaming PC "
 },
 "46": {
  "ID": 46,
  "URL": "https://www.pcspecialist.co.uk/gaming-pc/",
  "Title": "PCSPECIALIST - Create a Powerful Gaming PC",
  "Content": "At PCSpecialist you can configure a powerful gaming PC to your exact requirements, giving you the upper-egde over your competitors and ensuring you finish top of the game. It' gaming at its best!",
  "Listings": "Gaming PC "
 },
 "47": {
  "ID": 47,
  "URL": "https://www.pcspecialist.co.uk/desktop-pcs/nvidia-be-the-hero/",
  "Title": "PCSPECIALIST - Configure a high performance Nvidia Be The Hero Based PC",
  "Content": "Configure a high performance Nvidia Be The Hero Based PC at PCSpecialist. Your perfect Nvidia Be The Hero Based PC is just a few simple steps away.",
  "Listings": "Syphon Pro Giga Ultra Link Ultra "
 },
 "48": {
  "ID": 48,
  "URL": "https://www.pcspecialist.co.uk/upgrade/",
  "Title": "PCSPECIALIST - Upgrade Your Existing PCSpecialist PC",
  "Content": "At PCSpecialist you can upgrade your existing PCSpecialist using our intelligent configurator, which will calculate how many ports you have available and what you can choose.",
  "Listings": ""
 },
 "49": {
  "ID": 49,
  "URL": "https://www.pcspecialist.co.uk/delivery/",
  "Title": "PCSPECIALIST - Delivery Options, Delivery Lead Times, Courier Information",
  "Content": "Find information on our courier, delivery options available and our current lead times.",
  "Listings": ""
 },
 "50": {
  "ID": 50,
  "URL": "https://www.pcspecialist.co.uk/computers-for-next-day-delivery/",
  "Title": "PCSPECIALIST - Computers For Next Day Delivery",
  "Content": "PCSpecialist is a manufacturer of high quality computers with a range available for same day dispatch. Buy a pre-assembled PC or configure your own.",
  "Listings": ""
 },
 "51": {
  "ID": 51,
  "URL": "https://www.pcspecialist.co.uk/faqs/",
  "Title": "PCSPECIALIST - Frequently Asked Questions!",
  "Content": "Frequently Asked Questions when buying a new PC or laptop.",
  "Listings": ""
 },
 "52": {
  "ID": 52,
  "URL": "https://www.pcspecialist.co.uk/why-buy/",
  "Title": "PCSPECIALIST - Why Buy From Us? We have thousands of reviews from customers and magazines!",
  "Content": "PCSpecialist is a manufacturer of computers and laptops with a large collection of awards, positive reviews and customer testimonials.",
  "Listings": ""
 },
 "53": {
  "ID": 53,
  "URL": "https://www.pcspecialist.co.uk/forums/",
  "Title": "PC Specialist Forums",
  "Content": "PC Specialist discussion forum for computers, laptops and mini PC's. See views, news & reviews, show off your new PC or get free technical support.",
  "Listings": "Currently Active Users Today's Birthdays PC Specialist Forums Statistics "
 },
 "54": {
  "ID": 54,
  "URL": "https://www.pcspecialist.co.uk/desktop-pcs/hyperx/",
  "Title": "PCSPECIALIST - Configure a high performance Hyperx Based PC",
  "Content": "Configure a high performance Hyperx Based PC at PCSpecialist. Your perfect Hyperx Based PC is just a few simple steps away.",
  "Listings": "Compact and ideal for FPS gaming anywhere. "
 },
 "55": {
  "ID": 55,
  "URL": "https://www.pcspecialist.co.uk/desktop-pcs/amd-ryzen/",
  "Title": "PCSPECIALIST - Configure a high performance AMD Ryzen Based PC",
  "Content": "Configure a high performance AMD Ryzen Based PC at PCSpecialist. Your perfect AMD Ryzen Based PC is just a few simple steps away.",
  "Listings": "Scoria 1700S Scoria 1700X Scoria 1800X "
 },
 "56": {
  "ID": 56,
  "URL": "https://www.pcspecialist.co.uk/desktop-pcs/intel-promo/",
  "Title": "PCSPECIALIST - Configure a high performance Intel Promo Based PC",
  "Content": "Configure a high performance Intel Promo Based PC at PCSpecialist. Your perfect Intel Promo Based PC is just a few simple steps away.",
  "Listings": "805 Pro Zephyr Elite Aries Elite Vortex 1400 Gaming PC Vortex Ultra Zephyr Extreme "
 },
 "57": {
  "ID": 57,
  "URL": "https://www.pcspecialist.co.uk/desktop-pcs/vr-ready-computers/",
  "Title": "PCSPECIALIST - Configure a high performance VR Ready Computer",
  "Content": "Configure a high performance VR Ready Computer at PCSpecialist. Your perfect VR Ready Computer is just a few simple steps away.",
  "Listings": "VR 740 VR 960 VR 1150 VR 860 VR 1220 VR 1350 VR 1600 VR 2000 VR 1800 "
 },
 "58": {
  "ID": 58,
  "URL": "https://www.pcspecialist.co.uk/desktop-pcs/amd-promo/",
  "Title": "PCSPECIALIST - Configure a high performance AMD Promo Based PC",
  "Content": "Configure a high performance AMD Promo Based PC at PCSpecialist. Your perfect AMD Promo Based PC is just a few simple steps away.",
  "Listings": "VR 740 Fusion 1300 Gaming PC Fusion 1600 Gaming PC "
 },
 "59": {
  "ID": 59,
  "URL": "https://www.pcspecialist.co.uk/aio-computers/",
  "Title": "PCSPECIALIST - AIO PC, All in One PC, all-in-one pc, Touchscreen PC, Touch Screen PC",
  "Content": "PCSpecialist is a manufacturer of high quality AIO computers. Configure a new all in one computer in just a few simple steps with a broad range of custom all in one computers available.",
  "Listings": "21.5\" VanGuard II 23.6\" Fusion II 21.5\" Fusion II 23.6\" Maestro II 32\" VanGuard II Gamer 32\" Devcon Gamer 34\" Fusion Curve "
 },
 "60": {
  "ID": 60,
  "URL": "https://www.pcspecialist.co.uk/desktop-pcs/nvidia-1080ti/",
  "Title": "PCSPECIALIST - Configure a high performance Nvidia 1080ti Based PC",
  "Content": "Configure a high performance Nvidia 1080ti Based PC at PCSpecialist. Your perfect Nvidia 1080ti Based PC is just a few simple steps away.",
  "Listings": "\n\t\t\tDOMINANT PERFORMANCE\n\t\t\t \n\t\t\tNEXT-GEN GAMING TECHNOLOGIES\n\t\t\t \n\t\t\tNEW LEVELS OF VR\n\t\t\t OBSESSIVE CRAFTSMANSHIP GEFORCE GTX 1080 Ti Cyclone Elite Cyclone Pro Cyclone Master Cyclone Ultimate "
 },
 "61": {
  "ID": 61,
  "URL": "https://www.pcspecialist.co.uk/custom-pc/",
  "Title": "PCSPECIALIST - Award Winning Custom PC Manufacturer",
  "Content": "Configure a high performance custom pc with a broad range of custom pcs available.",
  "Listings": ""
 },
 "62": {
  "ID": 62,
  "URL": "https://www.pcspecialist.co.uk/public-sector/",
  "Title": "PCSPECIALIST - Public Sector, Government & Education",
  "Content": "At PCSpecialist we supply bespoke computers and laptops to consumers, businesses, the public sector, government and education.",
  "Listings": ""
 },
 "63": {
  "ID": 63,
  "URL": "https://www.pcspecialist.co.uk/finance/",
  "Title": "PCSPECIALIST - PC Finance, Laptop Finance, Custom PC Finance, Gaming PC Finance, Desktop PC Finance",
  "Content": "Wide selection of finance options available to help you pay for your new computer with minimal deposit required.",
  "Listings": ""
 },
 "64": {
  "ID": 64,
  "URL": "https://www.pcspecialist.co.uk/laptops/",
  "Title": "PCSPECIALIST - Laptops, Custom Laptops, Gaming Laptops, Buy Laptop",
  "Content": "PCSpecialist is a manufacturer of high performance laptops. Configure your new laptop in just a few simple steps with a vast range available.",
  "Listings": "10.1\" BumbleBee 2-in-1 15.6\" Genesis V 14\" UltraNote IV LE 17.3\" Genesis V 14\" UltraNote IV 15.6\" UltraNote IV 15.6\" Cosmos VI 15.6\" Optimus VIII 17.3\" Cosmos VI 17.3\" Optimus VIII 14\" Defiance III 15.6\" Defiance III 15.6\" Proteus IV 17.3\" Proteus IV 17.3\" Defiance III 15.6\" Octane III 17.3\" Octane III 17.3\" Vortex VI "
 },
 "65": {
  "ID": 65,
  "URL": "https://www.pcspecialist.co.uk/reviews/",
  "Title": "PCSPECIALIST - Reviews, Review PC, Desktop PC Reviews, Review PCSpecialist, Computer Review, PC Reviews UK",
  "Content": "PCSpecialist is an award winning manufacturer of high quality computers and laptops, with reviews from many industry leading magazines and websites.",
  "Listings": ""
 },
 "66": {
  "ID": 66,
  "URL": "https://www.pcspecialist.co.uk/testimonials/",
  "Title": "PCSPECIALIST - Testimonials, Reviews, PC Reviews, PCSpecialist Reviews, PCSpecialist Reviews",
  "Content": "PCSpecialist is an award winning manufacturer of high quality computers and laptops.",
  "Listings": ""
 },
 "67": {
  "ID": 67,
  "URL": "https://www.pcspecialist.co.uk/about-us/",
  "Title": "PCSPECIALIST - About Us",
  "Content": "PCSpecialist is an award winning manufacturer of high quality computers and laptops.",
  "Listings": ""
 },
 "68": {
  "ID": 68,
  "URL": "https://www.pcspecialist.co.uk/contact-us/",
  "Title": "PCSPECIALIST - Contact Us: Tel: 0333 011 7000 | enquiries@pcspecialist.co.uk",
  "Content": "PCSpecialist is a manufacturer of high quality custom computers and laptops. You can contact us on 0333 011 7000 or email us on enquiries@pcspecialist.co.uk.",
  "Listings": ""
 },
 "69": {
  "ID": 69,
  "URL": "https://www.pcspecialist.co.uk/computers/VanGuardII-32/",
  "Title": "PCSPECIALIST - Configure the VanGuardII 32 to your ideal requirements.",
  "Content": "PCSpecialist is an award winning manufacturer of high quality custom PCs. Configure the VanGuardII 32 to your ideal requirements.",
  "Listings": "system summary The 32\" VanGuard II Gamer 1) choose your core components Javascript is disabled on your computer. Please enable javascript before proceeding. 2) hard drives, optical storage & memory card reader 4) system refinements 5) choose your operating system and software 6) peripherals & accessories 7) delivery & services "
 },
 "70": {
  "ID": 70,
  "URL": "https://www.pcspecialist.co.uk/desktop-pcs/seagate/",
  "Title": "PCSPECIALIST - Configure a high performance Seagate Based PC",
  "Content": "Configure a high performance Seagate Based PC at PCSpecialist. Your perfect Seagate Based PC is just a few simple steps away.",
  "Listings": "UltraNote Fire Optimus Fire Octane Fire Vortex 650 Gaming PC Vortex 950 Gaming PC Vortex Barracuda "
 },
 "71": {
  "ID": 71,
  "URL": "https://www.pcspecialist.co.uk/computers/VanGuardII-22/",
  "Title": "PCSPECIALIST - Configure the VanGuardII 22 to your ideal requirements.",
  "Content": "PCSpecialist is an award winning manufacturer of high quality custom PCs. Configure the VanGuardII 22 to your ideal requirements.",
  "Listings": "system summary The 21.5\" VanGuard II 1) choose your core components Javascript is disabled on your computer. Please enable javascript before proceeding. 2) hard drives, optical storage & memory card reader 4) system refinements 5) choose your operating system and software 6) peripherals & accessories 7) delivery & services "
 },
 "72": {
  "ID": 72,
  "URL": "https://www.pcspecialist.co.uk/computers/maestroII-24/",
  "Title": "PCSPECIALIST - Configure the MaestroII 24 to your ideal requirements.",
  "Content": "PCSpecialist is an award winning manufacturer of high quality custom PCs. Configure the MaestroII 24 to your ideal requirements.",
  "Listings": "system summary The 23.6\" Maestro II 1) choose your core components Javascript is disabled on your computer. Please enable javascript before proceeding. 2) hard drives, optical storage & memory card reader 4) system refinements 5) choose your operating system and software 6) peripherals & accessories 7) delivery & services "
 },
 "73": {
  "ID": 73,
  "URL": "https://www.pcspecialist.co.uk/computers/fusionII-34/",
  "Title": "PCSPECIALIST - Configure the FusionII 34 to your ideal requirements.",
  "Content": "PCSpecialist is an award winning manufacturer of high quality custom PCs. Configure the FusionII 34 to your ideal requirements.",
  "Listings": "system summary The 34\" Fusion Curve 1) choose your core components Javascript is disabled on your computer. Please enable javascript before proceeding. 2) hard drives, optical storage & memory card reader 4) system refinements 5) choose your operating system and software 6) peripherals & accessories 7) delivery & services "
 },
 "74": {
  "ID": 74,
  "URL": "https://www.pcspecialist.co.uk/computers/fusionII-24/",
  "Title": "PCSPECIALIST - Configure the FusionII 24 to your ideal requirements.",
  "Content": "PCSpecialist is an award winning manufacturer of high quality custom PCs. Configure the FusionII 24 to your ideal requirements.",
  "Listings": "system summary The 23.6\" Fusion II 1) choose your core components Javascript is disabled on your computer. Please enable javascript before proceeding. 2) hard drives, optical storage & memory card reader 4) system refinements 5) choose your operating system and software 6) peripherals & accessories 7) delivery & services "
 },
 "75": {
  "ID": 75,
  "URL": "https://www.pcspecialist.co.uk/computers/fusionII-22/",
  "Title": "PCSPECIALIST - Configure the FusionII 22 to your ideal requirements.",
  "Content": "PCSpecialist is an award winning manufacturer of high quality custom PCs. Configure the FusionII 22 to your ideal requirements.",
  "Listings": "system summary The 21.5\" Fusion II 1) choose your core components Javascript is disabled on your computer. Please enable javascript before proceeding. 2) hard drives, optical storage & memory card reader 4) system refinements 5) choose your operating system and software 6) peripherals & accessories 7) delivery & services "
 },
 "76": {
  "ID": 76,
  "URL": "https://www.pcspecialist.co.uk/computers/devcon-32/",
  "Title": "PCSPECIALIST - Configure the Devcon 32 to your ideal requirements.",
  "Content": "PCSpecialist is an award winning manufacturer of high quality custom PCs. Configure the Devcon 32 to your ideal requirements.",
  "Listings": "system summary The 32\" Devcon Gamer 1) choose your core components Javascript is disabled on your computer. Please enable javascript before proceeding. 2) hard drives, optical storage & memory card reader 4) system refinements 5) choose your operating system and software 6) peripherals & accessories 7) delivery & services "
 },
 "77": {
  "ID": 77,
  "URL": "https://www.pcspecialist.co.uk/computers-next-day/laptop/",
  "Title": "PCSPECIALIST - Computers for next day delivery",
  "Content": "PCSpecialist is a manufacturer of high quality computers with a range available for same day dispatch. Buy a pre-assembled PC or configure your own.",
  "Listings": "14\" UltraNote IV Lite 14\" UltraNote IV S 15.6\" Cosmos VI S 17.3\" Cosmos VI S 17.3\" Optimus VIII Elite 15.6\" Optimus VIII Elite 15.6\" Cosmos VI Ultra 17.3\" Cosmos VI Ultra 15.6\" Optimus VIII Ultra 17.3\" Optimus VIII Ultra 15.6\" Defiance III K15-1060 17.3\" Defiance III X17-1060 17.3\" Defiance III K17-1060 15.6\" Octane III K15-1060 15.6\" Defiance III K15-1070 17.3\" Defiance III K17-1070 15.6\" Octane III K15-1070 17.3\" Octane III K17-1070 17.3\" Octane III K17-1080 "
 },
 "78": {
  "ID": 78,
  "URL": "https://www.pcspecialist.co.uk/form-view/octaneIII-17/4K-4100/",
  "Title": "PCSPECIALIST - Configure the 4K 4100 to your ideal requirements.",
  "Content": "PCSpecialist is an award winning manufacturer of high quality custom PCs. Configure the 4K 4100 to your ideal requirements.",
  "Listings": "system summary The 17.3\" Octane III 1) choose your core components Javascript is disabled on your computer. Please enable javascript before proceeding. 2) hard drives, optical storage & memory card reader 3) power and cooling 4) system refinements 5) choose your operating system and software 6) peripherals & accessories 7) delivery & services "
 },
 "79": {
  "ID": 79,
  "URL": "https://www.pcspecialist.co.uk/form-view/optimusVIII-17/Optimus-VI-960/",
  "Title": "PCSPECIALIST - Configure the Optimus VI 960 to your ideal requirements.",
  "Content": "PCSpecialist is an award winning manufacturer of high quality custom PCs. Configure the Optimus VI 960 to your ideal requirements.",
  "Listings": "system summary The 17.3\" Optimus VIII 1) choose your core components Javascript is disabled on your computer. Please enable javascript before proceeding. 2) hard drives, optical storage & memory card reader 3) power and cooling 4) system refinements 5) choose your operating system and software 6) peripherals & accessories 7) delivery & services "
 },
 "80": {
  "ID": 80,
  "URL": "https://www.pcspecialist.co.uk/form-view/defianceIII-14/Defiance-14-950/",
  "Title": "PCSPECIALIST - Configure the Defiance 14 950 to your ideal requirements.",
  "Content": "PCSpecialist is an award winning manufacturer of high quality custom PCs. Configure the Defiance 14 950 to your ideal requirements.",
  "Listings": "system summary The 14\" Defiance III 1) choose your core components Javascript is disabled on your computer. Please enable javascript before proceeding. 2) hard drives, optical storage & memory card reader 3) power and cooling 4) system refinements 5) choose your operating system and software 6) peripherals & accessories 7) delivery & services "
 },
 "81": {
  "ID": 81,
  "URL": "https://www.pcspecialist.co.uk/custom-laptops/advertised-laptops/",
  "Title": "PCSPECIALIST - Configure a high performance Advertised Laptop",
  "Content": "Configure a high performance Advertised Laptop at PCSpecialist. Your perfect Advertised Laptop is just a few simple steps away.",
  "Listings": "Defiance 14 950 Optimus VI 960 4K 4100 "
 },
 "82": {
  "ID": 82,
  "URL": "https://www.pcspecialist.co.uk/notebooks/vortexVI-17/",
  "Title": "PCSPECIALIST - Configure the VortexVI 17 to your ideal requirements.",
  "Content": "PCSpecialist is an award winning manufacturer of high quality custom PCs. Configure the VortexVI 17 to your ideal requirements.",
  "Listings": "system summary The 17.3\" Vortex VI 1) choose your core components Javascript is disabled on your computer. Please enable javascript before proceeding. 2) hard drives, optical storage & memory card reader 3) power and cooling 4) system refinements 5) choose your operating system and software 6) peripherals & accessories 7) delivery & services "
 },
 "83": {
  "ID": 83,
  "URL": "https://www.pcspecialist.co.uk/notebooks/octaneIII-17/",
  "Title": "PCSPECIALIST - Configure the OctaneIII 17 to your ideal requirements.",
  "Content": "PCSpecialist is an award winning manufacturer of high quality custom PCs. Configure the OctaneIII 17 to your ideal requirements.",
  "Listings": "system summary The 17.3\" Octane III 1) choose your core components Javascript is disabled on your computer. Please enable javascript before proceeding. 2) hard drives, optical storage & memory card reader 3) power and cooling 4) system refinements 5) choose your operating system and software 6) peripherals & accessories 7) delivery & services "
 },
 "84": {
  "ID": 84,
  "URL": "https://www.pcspecialist.co.uk/notebooks/octaneIII-15/",
  "Title": "PCSPECIALIST - Configure the OctaneIII 15 to your ideal requirements.",
  "Content": "PCSpecialist is an award winning manufacturer of high quality custom PCs. Configure the OctaneIII 15 to your ideal requirements.",
  "Listings": "system summary The 15.6\" Octane III 1) choose your core components Javascript is disabled on your computer. Please enable javascript before proceeding. 2) hard drives, optical storage & memory card reader 3) power and cooling 4) system refinements 5) choose your operating system and software 6) peripherals & accessories 7) delivery & services "
 },
 "85": {
  "ID": 85,
  "URL": "https://www.pcspecialist.co.uk/notebooks/defianceIII-17/",
  "Title": "PCSPECIALIST - Configure the DefianceIII 17 to your ideal requirements.",
  "Content": "PCSpecialist is an award winning manufacturer of high quality custom PCs. Configure the DefianceIII 17 to your ideal requirements.",
  "Listings": "system summary The 17.3\" Defiance III 1) choose your core components Javascript is disabled on your computer. Please enable javascript before proceeding. 2) hard drives, optical storage & memory card reader 3) power and cooling 4) system refinements 5) choose your operating system and software 6) peripherals & accessories 7) delivery & services "
 },
 "86": {
  "ID": 86,
  "URL": "https://www.pcspecialist.co.uk/notebooks/defianceIII-15/",
  "Title": "PCSPECIALIST - Configure the DefianceIII 15 to your ideal requirements.",
  "Content": "PCSpecialist is an award winning manufacturer of high quality custom PCs. Configure the DefianceIII 15 to your ideal requirements.",
  "Listings": "system summary The 15.6\" Defiance III 1) choose your core components Javascript is disabled on your computer. Please enable javascript before proceeding. 2) hard drives, optical storage & memory card reader 3) power and cooling 4) system refinements 5) choose your operating system and software 6) peripherals & accessories 7) delivery & services "
 },
 "87": {
  "ID": 87,
  "URL": "https://www.pcspecialist.co.uk/notebooks/defianceIII-14/",
  "Title": "PCSPECIALIST - Configure the DefianceIII 14 to your ideal requirements.",
  "Content": "PCSpecialist is an award winning manufacturer of high quality custom PCs. Configure the DefianceIII 14 to your ideal requirements.",
  "Listings": "system summary The 14\" Defiance III 1) choose your core components Javascript is disabled on your computer. Please enable javascript before proceeding. 2) hard drives, optical storage & memory card reader 3) power and cooling 4) system refinements 5) choose your operating system and software 6) peripherals & accessories 7) delivery & services "
 },
 "88": {
  "ID": 88,
  "URL": "https://www.pcspecialist.co.uk/laptops/4/",
  "Title": "PCSPECIALIST - Laptops, Custom Laptops, Gaming Laptops, Buy Laptop",
  "Content": "PCSpecialist is a manufacturer of high performance laptops. Configure your new laptop in just a few simple steps with a vast range available.",
  "Listings": "15.6\" Cosmos VI 15.6\" Optimus VIII 17.3\" Cosmos VI 17.3\" Optimus VIII 14\" Defiance III 15.6\" Defiance III 15.6\" Proteus IV 17.3\" Proteus IV 17.3\" Defiance III 15.6\" Octane III 17.3\" Octane III 17.3\" Vortex VI "
 },
 "89": {
  "ID": 89,
  "URL": "https://www.pcspecialist.co.uk/notebooks/proteusIV-17/",
  "Title": "PCSPECIALIST - Configure the ProteusIV 17 to your ideal requirements.",
  "Content": "PCSpecialist is an award winning manufacturer of high quality custom PCs. Configure the ProteusIV 17 to your ideal requirements.",
  "Listings": "system summary The 17.3\" Proteus IV 1) choose your core components Javascript is disabled on your computer. Please enable javascript before proceeding. 2) hard drives, optical storage & memory card reader 3) power and cooling 4) system refinements 5) choose your operating system and software 6) peripherals & accessories 7) delivery & services "
 },
 "90": {
  "ID": 90,
  "URL": "https://www.pcspecialist.co.uk/notebooks/proteusIV-15/",
  "Title": "PCSPECIALIST - Configure the ProteusIV 15 to your ideal requirements.",
  "Content": "PCSpecialist is an award winning manufacturer of high quality custom PCs. Configure the ProteusIV 15 to your ideal requirements.",
  "Listings": "system summary The 15.6\" Proteus IV 1) choose your core components Javascript is disabled on your computer. Please enable javascript before proceeding. 2) hard drives, optical storage & memory card reader 3) power and cooling 4) system refinements 5) choose your operating system and software 6) peripherals & accessories 7) delivery & services "
 },
 "91": {
  "ID": 91,
  "URL": "https://www.pcspecialist.co.uk/notebooks/optimusVIII-17/",
  "Title": "PCSPECIALIST - Configure the OptimusVIII 17 to your ideal requirements.",
  "Content": "PCSpecialist is an award winning manufacturer of high quality custom PCs. Configure the OptimusVIII 17 to your ideal requirements.",
  "Listings": "system summary The 17.3\" Optimus VIII 1) choose your core components Javascript is disabled on your computer. Please enable javascript before proceeding. 2) hard drives, optical storage & memory card reader 3) power and cooling 4) system refinements 5) choose your operating system and software 6) peripherals & accessories 7) delivery & services "
 },
 "92": {
  "ID": 92,
  "URL": "https://www.pcspecialist.co.uk/notebooks/cosmosVI-17/",
  "Title": "PCSPECIALIST - Configure the CosmosVI 17 to your ideal requirements.",
  "Content": "PCSpecialist is an award winning manufacturer of high quality custom PCs. Configure the CosmosVI 17 to your ideal requirements.",
  "Listings": "system summary The 17.3\" Cosmos VI 1) choose your core components Javascript is disabled on your computer. Please enable javascript before proceeding. 2) hard drives, optical storage & memory card reader 3) power and cooling 4) system refinements 5) choose your operating system and software 6) peripherals & accessories 7) delivery & services "
 },
 "93": {
  "ID": 93,
  "URL": "https://www.pcspecialist.co.uk/notebooks/optimusVIII-15/",
  "Title": "PCSPECIALIST - Configure the OptimusVIII 15 to your ideal requirements.",
  "Content": "PCSpecialist is an award winning manufacturer of high quality custom PCs. Configure the OptimusVIII 15 to your ideal requirements.",
  "Listings": "system summary The 15.6\" Optimus VIII 1) choose your core components Javascript is disabled on your computer. Please enable javascript before proceeding. 2) hard drives, optical storage & memory card reader 3) power and cooling 4) system refinements 5) choose your operating system and software 6) peripherals & accessories 7) delivery & services "
 },
 "94": {
  "ID": 94,
  "URL": "https://www.pcspecialist.co.uk/notebooks/cosmosVI-15/",
  "Title": "PCSPECIALIST - Configure the CosmosVI 15 to your ideal requirements.",
  "Content": "PCSpecialist is an award winning manufacturer of high quality custom PCs. Configure the CosmosVI 15 to your ideal requirements.",
  "Listings": "system summary The 15.6\" Cosmos VI 1) choose your core components Javascript is disabled on your computer. Please enable javascript before proceeding. 2) hard drives, optical storage & memory card reader 3) power and cooling 4) system refinements 5) choose your operating system and software 6) peripherals & accessories 7) delivery & services "
 },
 "95": {
  "ID": 95,
  "URL": "https://www.pcspecialist.co.uk/laptops/2/",
  "Title": "PCSPECIALIST - Laptops, Custom Laptops, Gaming Laptops, Buy Laptop",
  "Content": "PCSpecialist is a manufacturer of high performance laptops. Configure your new laptop in just a few simple steps with a vast range available.",
  "Listings": "15.6\" Cosmos VI 15.6\" Optimus VIII 17.3\" Cosmos VI 17.3\" Optimus VIII 15.6\" Proteus IV 17.3\" Proteus IV "
 },
 "96": {
  "ID": 96,
  "URL": "https://www.pcspecialist.co.uk/notebooks/ultraNoteIV-15/",
  "Title": "PCSPECIALIST - Configure the UltraNoteIV 15 to your ideal requirements.",
  "Content": "PCSpecialist is an award winning manufacturer of high quality custom PCs. Configure the UltraNoteIV 15 to your ideal requirements.",
  "Listings": "system summary The 15.6\" UltraNote IV 1) choose your core components Javascript is disabled on your computer. Please enable javascript before proceeding. 2) hard drives, optical storage & memory card reader 3) power and cooling 4) system refinements 5) choose your operating system and software 6) peripherals & accessories 7) delivery & services "
 },
 "97": {
  "ID": 97,
  "URL": "https://www.pcspecialist.co.uk/notebooks/ultraNoteIV-14/",
  "Title": "PCSPECIALIST - Configure the UltraNoteIV 14 to your ideal requirements.",
  "Content": "PCSpecialist is an award winning manufacturer of high quality custom PCs. Configure the UltraNoteIV 14 to your ideal requirements.",
  "Listings": "system summary The 14\" UltraNote IV 1) choose your core components Javascript is disabled on your computer. Please enable javascript before proceeding. 2) hard drives, optical storage & memory card reader 3) power and cooling 4) system refinements 5) choose your operating system and software 6) peripherals & accessories 7) delivery & services "
 },
 "98": {
  "ID": 98,
  "URL": "https://www.pcspecialist.co.uk/notebooks/genesisV-17/",
  "Title": "PCSPECIALIST - Configure the GenesisV 17 to your ideal requirements.",
  "Content": "PCSpecialist is an award winning manufacturer of high quality custom PCs. Configure the GenesisV 17 to your ideal requirements.",
  "Listings": "system summary The 17.3\" Genesis V 1) choose your core components Javascript is disabled on your computer. Please enable javascript before proceeding. 2) hard drives, optical storage & memory card reader 3) power and cooling 4) system refinements 5) choose your operating system and software 6) peripherals & accessories 7) delivery & services "
 },
 "99": {
  "ID": 99,
  "URL": "https://www.pcspecialist.co.uk/notebooks/ultraNoteIV-14-LE/",
  "Title": "PCSPECIALIST - Configure the UltraNoteIV 14 LE to your ideal requirements.",
  "Content": "PCSpecialist is an award winning manufacturer of high quality custom PCs. Configure the UltraNoteIV 14 LE to your ideal requirements.",
  "Listings": "system summary The 14\" UltraNote IV LE 1) choose your core components Javascript is disabled on your computer. Please enable javascript before proceeding. 2) hard drives, optical storage & memory card reader 3) power and cooling 4) system refinements 5) choose your operating system and software 6) peripherals & accessories 7) delivery & services "
 },
 "100": {
  "ID": 100,
  "URL": "https://www.pcspecialist.co.uk/notebooks/genesisV-15/",
  "Title": "PCSPECIALIST - Configure the GenesisV 15 to your ideal requirements.",
  "Content": "PCSpecialist is an award winning manufacturer of high quality custom PCs. Configure the GenesisV 15 to your ideal requirements.",
  "Listings": "system summary The 15.6\" Genesis V 1) choose your core components Javascript is disabled on your computer. Please enable javascript before proceeding. 2) hard drives, optical storage & memory card reader 3) power and cooling 4) system refinements 5) choose your operating system and software 6) peripherals & accessories 7) delivery & services "
 },
 "101": {
  "ID": 101,
  "URL": "https://www.pcspecialist.co.uk/notebooks/BumbleBee/",
  "Title": "PCSPECIALIST - Configure the BumbleBee to your ideal requirements.",
  "Content": "PCSpecialist is an award winning manufacturer of high quality custom PCs. Configure the BumbleBee to your ideal requirements.",
  "Listings": "system summary The 10.1\" BumbleBee 2-in-1 1) choose your core components Javascript is disabled on your computer. Please enable javascript before proceeding. 2) hard drives, optical storage & memory card reader 3) power and cooling 4) system refinements 5) choose your operating system and software 6) peripherals & accessories 7) delivery & services "
 },
 "102": {
  "ID": 102,
  "URL": "https://www.pcspecialist.co.uk/laptops/1/",
  "Title": "PCSPECIALIST - Laptops, Custom Laptops, Gaming Laptops, Buy Laptop",
  "Content": "PCSpecialist is a manufacturer of high performance laptops. Configure your new laptop in just a few simple steps with a vast range available.",
  "Listings": "10.1\" BumbleBee 2-in-1 15.6\" Genesis V 14\" UltraNote IV LE 17.3\" Genesis V 14\" UltraNote IV 15.6\" UltraNote IV "
 },
 "103": {
  "ID": 103,
  "URL": "https://www.pcspecialist.co.uk/nvidia-quadro-workstations/",
  "Title": "PCSPECIALIST - Nvidia Quadro Workstations Built to Order",
  "Content": "Design an Nvidia Quadro based workstation around your application and we will build it to your exact requirements. Our computers are tailored for high performance use in industry and commerce.",
  "Listings": "Find your ideal workstation "
 },
 "104": {
  "ID": 104,
  "URL": "https://www.pcspecialist.co.uk/computers-next-day/pc/",
  "Title": "PCSPECIALIST - Computers for next day delivery",
  "Content": "PCSpecialist is a manufacturer of high quality computers with a range available for same day dispatch. Buy a pre-assembled PC or configure your own.",
  "Listings": "Enigma XS II Vanquish 1050 II Sidemen Elite III Fusion FX ST II Vanquish 1050Ti II Vanquish GT Mk V Fusion Magma Elite II Vanquish RX Mk2 Vanquish RX Pro Velocity Zen Sidemen Pro III Velocity GTX VI Velocity Zen Pro Vanquish Exige VI Velocity Zen Extreme Velocity H440 III "
 },
 "105": {
  "ID": 105,
  "URL": "https://www.pcspecialist.co.uk/view/LS-H02/",
  "Title": "PCSPECIALIST - Configure the LS H02 to your ideal requirements.",
  "Content": "PCSpecialist is an award winning manufacturer of high quality custom PCs. Configure the LS H02 to your ideal requirements.",
  "Listings": "system summary Javascript is disabled on your computer. Please enable javascript before proceeding. our pre-designed system specification 1) select a case - click a case to enlarge and view info 2) choose your core components 3) hard drives, optical storage & memory card reader 4) power and cooling 5) system refinements 6) choose your operating system and software 7) peripherals & accessories 8) delivery & services "
 },
 "106": {
  "ID": 106,
  "URL": "https://www.pcspecialist.co.uk/view/Wireframe-750/",
  "Title": "PCSPECIALIST - Configure the Wireframe 750 to your ideal requirements.",
  "Content": "PCSpecialist is an award winning manufacturer of high quality custom PCs. Configure the Wireframe 750 to your ideal requirements.",
  "Listings": "system summary Javascript is disabled on your computer. Please enable javascript before proceeding. our pre-designed system specification 1) select a case - click a case to enlarge and view info 2) choose your core components 3) hard drives, optical storage & memory card reader 4) power and cooling 5) system refinements 6) choose your operating system and software 7) peripherals & accessories 8) delivery & services "
 },
 "107": {
  "ID": 107,
  "URL": "https://www.pcspecialist.co.uk/view/Vortex-Ultra/",
  "Title": "PCSPECIALIST - Configure the Vortex Ultra to your ideal requirements.",
  "Content": "PCSpecialist is an award winning manufacturer of high quality custom PCs. Configure the Vortex Ultra to your ideal requirements.",
  "Listings": "system summary Javascript is disabled on your computer. Please enable javascript before proceeding. our pre-designed system specification 1) select a case - click a case to enlarge and view info 2) choose your core components 3) hard drives, optical storage & memory card reader 4) power and cooling 5) system refinements 6) choose your operating system and software 7) peripherals & accessories 8) delivery & services "
 },
 "108": {
  "ID": 108,
  "URL": "https://www.pcspecialist.co.uk/view/Vortex-2000-Gaming-PC/",
  "Title": "PCSPECIALIST - Configure the Vortex 2000 Gaming PC to your ideal requirements.",
  "Content": "PCSpecialist is an award winning manufacturer of high quality custom PCs. Configure the Vortex 2000 Gaming PC to your ideal requirements.",
  "Listings": "system summary Javascript is disabled on your computer. Please enable javascript before proceeding. our pre-designed system specification 1) select a case - click a case to enlarge and view info 2) choose your core components 3) hard drives, optical storage & memory card reader 4) power and cooling 5) system refinements 6) choose your operating system and software 7) peripherals & accessories 8) delivery & services "
 },
 "109": {
  "ID": 109,
  "URL": "https://www.pcspecialist.co.uk/view/Reflex-Pro/",
  "Title": "PCSPECIALIST - Configure the Reflex Pro to your ideal requirements.",
  "Content": "PCSpecialist is an award winning manufacturer of high quality custom PCs. Configure the Reflex Pro to your ideal requirements.",
  "Listings": "system summary Javascript is disabled on your computer. Please enable javascript before proceeding. our pre-designed system specification 1) select a case - click a case to enlarge and view info 2) choose your core components 3) hard drives, optical storage & memory card reader 4) power and cooling 5) system refinements 6) choose your operating system and software 7) peripherals & accessories 8) delivery & services "
 },
 "110": {
  "ID": 110,
  "URL": "https://www.pcspecialist.co.uk/view/Reflex-240/",
  "Title": "PCSPECIALIST - Configure the Reflex 240 to your ideal requirements.",
  "Content": "PCSpecialist is an award winning manufacturer of high quality custom PCs. Configure the Reflex 240 to your ideal requirements.",
  "Listings": "system summary Javascript is disabled on your computer. Please enable javascript before proceeding. our pre-designed system specification 1) select a case - click a case to enlarge and view info 2) choose your core components 3) hard drives, optical storage & memory card reader 4) power and cooling 5) system refinements 6) choose your operating system and software 7) peripherals & accessories 8) delivery & services "
 },
 "111": {
  "ID": 111,
  "URL": "https://www.pcspecialist.co.uk/view/Vortex-1000-gaming-pc/",
  "Title": "PCSPECIALIST - Configure the Vortex 1000 Gaming PC to your ideal requirements.",
  "Content": "PCSpecialist is an award winning manufacturer of high quality custom PCs. Configure the Vortex 1000 Gaming PC to your ideal requirements.",
  "Listings": "system summary Javascript is disabled on your computer. Please enable javascript before proceeding. our pre-designed system specification 1) select a case - click a case to enlarge and view info 2) choose your core components 3) hard drives, optical storage & memory card reader 4) power and cooling 5) system refinements 6) choose your operating system and software 7) peripherals & accessories 8) delivery & services "
 },
 "112": {
  "ID": 112,
  "URL": "https://www.pcspecialist.co.uk/view/Zephyr-Elite/",
  "Title": "PCSPECIALIST - Configure the Zephyr Elite to your ideal requirements.",
  "Content": "PCSpecialist is an award winning manufacturer of high quality custom PCs. Configure the Zephyr Elite to your ideal requirements.",
  "Listings": "system summary Javascript is disabled on your computer. Please enable javascript before proceeding. our pre-designed system specification 1) select a case - click a case to enlarge and view info 2) choose your core components 3) hard drives, optical storage & memory card reader 4) power and cooling 5) system refinements 6) choose your operating system and software 7) peripherals & accessories 8) delivery & services "
 },
 "113": {
  "ID": 113,
  "URL": "https://www.pcspecialist.co.uk/view/Xfire-Ready-X700-PC/",
  "Title": "PCSPECIALIST - Configure the Xfire Ready X700 PC to your ideal requirements.",
  "Content": "PCSpecialist is an award winning manufacturer of high quality custom PCs. Configure the Xfire Ready X700 PC to your ideal requirements.",
  "Listings": "system summary Javascript is disabled on your computer. Please enable javascript before proceeding. our pre-designed system specification 1) select a case - click a case to enlarge and view info 2) choose your core components 3) hard drives, optical storage & memory card reader 4) power and cooling 5) system refinements 6) choose your operating system and software 7) peripherals & accessories 8) delivery & services "
 },
 "114": {
  "ID": 114,
  "URL": "https://www.pcspecialist.co.uk/view/SLI-Ready-S1000-PC/",
  "Title": "PCSPECIALIST - Configure the SLI Ready S1000 PC to your ideal requirements.",
  "Content": "PCSpecialist is an award winning manufacturer of high quality custom PCs. Configure the SLI Ready S1000 PC to your ideal requirements.",
  "Listings": "system summary Javascript is disabled on your computer. Please enable javascript before proceeding. our pre-designed system specification 1) select a case - click a case to enlarge and view info 2) choose your core components 3) hard drives, optical storage & memory card reader 4) power and cooling 5) system refinements 6) choose your operating system and software 7) peripherals & accessories 8) delivery & services "
 },
 "115": {
  "ID": 115,
  "URL": "https://www.pcspecialist.co.uk/view/Vortex-Pro/",
  "Title": "PCSPECIALIST - Configure the Vortex Pro to your ideal requirements.",
  "Content": "PCSpecialist is an award winning manufacturer of high quality custom PCs. Configure the Vortex Pro to your ideal requirements.",
  "Listings": "system summary Javascript is disabled on your computer. Please enable javascript before proceeding. our pre-designed system specification 1) select a case - click a case to enlarge and view info 2) choose your core components 3) hard drives, optical storage & memory card reader 4) power and cooling 5) system refinements 6) choose your operating system and software 7) peripherals & accessories 8) delivery & services "
 },
 "116": {
  "ID": 116,
  "URL": "https://www.pcspecialist.co.uk/view/Gladius-900/",
  "Title": "PCSPECIALIST - Configure the Gladius 900 to your ideal requirements.",
  "Content": "PCSpecialist is an award winning manufacturer of high quality custom PCs. Configure the Gladius 900 to your ideal requirements.",
  "Listings": "system summary Javascript is disabled on your computer. Please enable javascript before proceeding. our pre-designed system specification 1) select a case - click a case to enlarge and view info 2) choose your core components 3) hard drives, optical storage & memory card reader 4) power and cooling 5) system refinements 6) choose your operating system and software 7) peripherals & accessories 8) delivery & services "
 },
 "117": {
  "ID": 117,
  "URL": "https://www.pcspecialist.co.uk/view/Editing-V700-PC/",
  "Title": "PCSPECIALIST - Configure the Editing V700 PC to your ideal requirements.",
  "Content": "PCSpecialist is an award winning manufacturer of high quality custom PCs. Configure the Editing V700 PC to your ideal requirements.",
  "Listings": "system summary Javascript is disabled on your computer. Please enable javascript before proceeding. our pre-designed system specification 1) select a case - click a case to enlarge and view info 2) choose your core components 3) hard drives, optical storage & memory card reader 4) power and cooling 5) system refinements 6) choose your operating system and software 7) peripherals & accessories 8) delivery & services "
 },
 "118": {
  "ID": 118,
  "URL": "https://www.pcspecialist.co.uk/view/Spectre-Pro/",
  "Title": "PCSPECIALIST - Configure the Spectre Pro to your ideal requirements.",
  "Content": "PCSpecialist is an award winning manufacturer of high quality custom PCs. Configure the Spectre Pro to your ideal requirements.",
  "Listings": "system summary Javascript is disabled on your computer. Please enable javascript before proceeding. our pre-designed system specification 1) select a case - click a case to enlarge and view info 2) choose your core components 3) hard drives, optical storage & memory card reader 4) power and cooling 5) system refinements 6) choose your operating system and software 7) peripherals & accessories 8) delivery & services "
 },
 "119": {
  "ID": 119,
  "URL": "https://www.pcspecialist.co.uk/view/Fusion-650-gaming-pc/",
  "Title": "PCSPECIALIST - Configure the Fusion 650 Gaming PC to your ideal requirements.",
  "Content": "PCSpecialist is an award winning manufacturer of high quality custom PCs. Configure the Fusion 650 Gaming PC to your ideal requirements.",
  "Listings": "system summary Javascript is disabled on your computer. Please enable javascript before proceeding. our pre-designed system specification 1) select a case - click a case to enlarge and view info 2) choose your core components 3) hard drives, optical storage & memory card reader 4) power and cooling 5) system refinements 6) choose your operating system and software 7) peripherals & accessories 8) delivery & services "
 },
 "120": {
  "ID": 120,
  "URL": "https://www.pcspecialist.co.uk/view/Spectre-Lite/",
  "Title": "PCSPECIALIST - Configure the Spectre Lite to your ideal requirements.",
  "Content": "PCSpecialist is an award winning manufacturer of high quality custom PCs. Configure the Spectre Lite to your ideal requirements.",
  "Listings": "system summary Javascript is disabled on your computer. Please enable javascript before proceeding. our pre-designed system specification 1) select a case - click a case to enlarge and view info 2) choose your core components 3) hard drives, optical storage & memory card reader 4) power and cooling 5) system refinements 6) choose your operating system and software 7) peripherals & accessories 8) delivery & services "
 },
 "121": {
  "ID": 121,
  "URL": "https://www.pcspecialist.co.uk/view/Vortex-Elite/",
  "Title": "PCSPECIALIST - Configure the Vortex Elite to your ideal requirements.",
  "Content": "PCSpecialist is an award winning manufacturer of high quality custom PCs. Configure the Vortex Elite to your ideal requirements.",
  "Listings": "system summary Javascript is disabled on your computer. Please enable javascript before proceeding. our pre-designed system specification 1) select a case - click a case to enlarge and view info 2) choose your core components 3) hard drives, optical storage & memory card reader 4) power and cooling 5) system refinements 6) choose your operating system and software 7) peripherals & accessories 8) delivery & services "
 },
 "122": {
  "ID": 122,
  "URL": "https://www.pcspecialist.co.uk/view/Fusion-450-gaming-pc/",
  "Title": "PCSPECIALIST - Configure the Fusion 450 Gaming PC to your ideal requirements.",
  "Content": "PCSpecialist is an award winning manufacturer of high quality custom PCs. Configure the Fusion 450 Gaming PC to your ideal requirements.",
  "Listings": "system summary Javascript is disabled on your computer. Please enable javascript before proceeding. our pre-designed system specification 1) select a case - click a case to enlarge and view info 2) choose your core components 3) hard drives, optical storage & memory card reader 4) power and cooling 5) system refinements 6) choose your operating system and software 7) peripherals & accessories 8) delivery & services "
 },
 "123": {
  "ID": 123,
  "URL": "https://www.pcspecialist.co.uk/desktop-pcs/advertised-pcs/",
  "Title": "PCSPECIALIST - Configure a high performance Advertised PC",
  "Content": "Configure a high performance Advertised PC at PCSpecialist. Your perfect Advertised PC is just a few simple steps away.",
  "Listings": "Fusion 450 Gaming PC Vortex Elite Spectre Lite Fusion 650 Gaming PC Spectre Pro Editing V700 PC Vortex Pro Gladius 900 SLI Ready S1000 PC Xfire Ready X700 PC Vortex 1250 Gaming PC Zephyr Elite Vortex 1000 Gaming PC Reflex 240 Reflex Pro Vortex 2000 Gaming PC Vortex Ultra Wireframe 750 LS H02 "
 },
 "124": {
  "ID": 124,
  "URL": "https://www.pcspecialist.co.uk/desktop-pcs/sidemen/",
  "Title": "PCSPECIALIST - Configure a high performance Sidemen Based PC",
  "Content": "Configure a high performance Sidemen Based PC at PCSpecialist. Your perfect Sidemen Based PC is just a few simple steps away.",
  "Listings": "Get your \u2018Next Day\u2019 Sidemen Gaming PC! "
 },
 "125": {
  "ID": 125,
  "URL": "https://www.pcspecialist.co.uk/computers/intel-x99-overclocked/",
  "Title": "PCSPECIALIST - Configure the Intel X99 Overclocked to your ideal requirements.",
  "Content": "PCSpecialist is an award winning manufacturer of high quality custom PCs. Configure the Intel X99 Overclocked to your ideal requirements.",
  "Listings": "system summary Javascript is disabled on your computer. Please enable javascript before proceeding. 1) select a case - click a case to enlarge and view info 2) choose your core components 3) hard drives, optical storage & memory card reader 4) power and cooling 5) system refinements 6) choose your operating system and software 7) peripherals & accessories 8) delivery & services "
 },
 "126": {
  "ID": 126,
  "URL": "https://www.pcspecialist.co.uk/computers/intel-z270-overclocked/",
  "Title": "PCSPECIALIST - Configure the Intel Z270 Overclocked to your ideal requirements.",
  "Content": "PCSpecialist is an award winning manufacturer of high quality custom PCs. Configure the Intel Z270 Overclocked to your ideal requirements.",
  "Listings": "system summary Javascript is disabled on your computer. Please enable javascript before proceeding. 1) select a case - click a case to enlarge and view info 2) choose your core components 3) hard drives, optical storage & memory card reader 4) power and cooling 5) system refinements 6) choose your operating system and software 7) peripherals & accessories 8) delivery & services "
 },
 "127": {
  "ID": 127,
  "URL": "https://www.pcspecialist.co.uk/intel-overclocked-computers/",
  "Title": "PCSPECIALIST - Intel Based Overclocked Computers | Configure Your OC Computer",
  "Content": "At PCSpecialist your can design your perfect overclocked computer online. Get the most out of your PC - we extensively test the performance and provide a full warranty.",
  "Listings": ""
 },
 "128": {
  "ID": 128,
  "URL": "https://www.pcspecialist.co.uk/computers/intel-sff-gaming/",
  "Title": "PCSPECIALIST - Configure the Intel Sff Gaming to your ideal requirements.",
  "Content": "PCSpecialist is an award winning manufacturer of high quality custom PCs. Configure the Intel Sff Gaming to your ideal requirements.",
  "Listings": "system summary Javascript is disabled on your computer. Please enable javascript before proceeding. 1) select a case - click a case to enlarge and view info 2) choose your core components 3) hard drives, optical storage & memory card reader 4) power and cooling 5) system refinements 6) choose your operating system and software 7) peripherals & accessories 8) delivery & services "
 },
 "129": {
  "ID": 129,
  "URL": "https://www.pcspecialist.co.uk/computers/intel-top-spec-mini-pc/",
  "Title": "PCSPECIALIST - Configure the Intel Top Spec Mini PC to your ideal requirements.",
  "Content": "PCSpecialist is an award winning manufacturer of high quality custom PCs. Configure the Intel Top Spec Mini PC to your ideal requirements.",
  "Listings": "system summary Javascript is disabled on your computer. Please enable javascript before proceeding. 1) select a case - click a case to enlarge and view info 2) choose your core components 3) hard drives, optical storage & memory card reader 4) system refinements 5) choose your operating system and software 6) peripherals & accessories 7) delivery & services "
 },
 "130": {
  "ID": 130,
  "URL": "https://www.pcspecialist.co.uk/computers/intel-silent-mini-pcII/",
  "Title": "PCSPECIALIST - Configure the Intel Silent Mini PCII to your ideal requirements.",
  "Content": "PCSpecialist is an award winning manufacturer of high quality custom PCs. Configure the Intel Silent Mini PCII to your ideal requirements.",
  "Listings": "system summary The Silent Mini PC 1) choose your core components Javascript is disabled on your computer. Please enable javascript before proceeding. 2) hard drives, optical storage & memory card reader 3) choose your operating system and software 4) peripherals & accessories 5) delivery & services "
 },
 "131": {
  "ID": 131,
  "URL": "https://www.pcspecialist.co.uk/computers/intel-performance-mini/",
  "Title": "PCSPECIALIST - Configure the Intel Performance Mini to your ideal requirements.",
  "Content": "PCSpecialist is an award winning manufacturer of high quality custom PCs. Configure the Intel Performance Mini to your ideal requirements.",
  "Listings": "system summary The Performance Mini PC 1) choose your core components Javascript is disabled on your computer. Please enable javascript before proceeding. 2) hard drives, optical storage & memory card reader 3) system refinements 4) choose your operating system and software 5) peripherals & accessories 6) delivery & services "
 },
 "132": {
  "ID": 132,
  "URL": "https://www.pcspecialist.co.uk/computers/intel-nucIII-pc-pentium/",
  "Title": "PCSPECIALIST - Configure the Intel NucIII PC Pentium to your ideal requirements.",
  "Content": "PCSpecialist is an award winning manufacturer of high quality custom PCs. Configure the Intel NucIII PC Pentium to your ideal requirements.",
  "Listings": "system summary The Intel NUC III Pentium: HDD 1) choose your core components Javascript is disabled on your computer. Please enable javascript before proceeding. 2) hard drives, optical storage & memory card reader 3) choose your operating system and software 4) peripherals & accessories 5) delivery & services "
 },
 "133": {
  "ID": 133,
  "URL": "https://www.pcspecialist.co.uk/computers/intel-x99-Broadwell-e-pc/",
  "Title": "PCSPECIALIST - Configure the Intel X99 Broadwell E PC to your ideal requirements.",
  "Content": "PCSpecialist is an award winning manufacturer of high quality custom PCs. Configure the Intel X99 Broadwell E PC to your ideal requirements.",
  "Listings": "system summary Javascript is disabled on your computer. Please enable javascript before proceeding. 1) select a case - click a case to enlarge and view info 2) choose your core components 3) hard drives, optical storage & memory card reader 4) power and cooling 5) system refinements 6) choose your operating system and software 7) peripherals & accessories 8) delivery & services "
 },
 "134": {
  "ID": 134,
  "URL": "https://www.pcspecialist.co.uk/computers/intel-z270-pc/",
  "Title": "PCSPECIALIST - Configure the Intel Z270 PC to your ideal requirements.",
  "Content": "PCSpecialist is an award winning manufacturer of high quality custom PCs. Configure the Intel Z270 PC to your ideal requirements.",
  "Listings": "system summary Javascript is disabled on your computer. Please enable javascript before proceeding. 1) select a case - click a case to enlarge and view info 2) choose your core components 3) hard drives, optical storage & memory card reader 4) power and cooling 5) system refinements 6) choose your operating system and software 7) peripherals & accessories 8) delivery & services "
 },
 "135": {
  "ID": 135,
  "URL": "https://www.pcspecialist.co.uk/computers/intel-home-office-pc/",
  "Title": "PCSPECIALIST - Configure the Intel Home Office PC to your ideal requirements.",
  "Content": "PCSpecialist is an award winning manufacturer of high quality custom PCs. Configure the Intel Home Office PC to your ideal requirements.",
  "Listings": "system summary Javascript is disabled on your computer. Please enable javascript before proceeding. 1) select a case - click a case to enlarge and view info 2) choose your core components 3) hard drives, optical storage & memory card reader 4) power and cooling 5) system refinements 6) choose your operating system and software 7) peripherals & accessories 8) delivery & services "
 },
 "136": {
  "ID": 136,
  "URL": "https://www.pcspecialist.co.uk/intel-computers/",
  "Title": "PCSPECIALIST - Intel PC, Intel Computers, Build Your Own Intel PC",
  "Content": "PCSpecialist is an award winning manufacturer of high quality custom PC's. Design a PC to your requirements.",
  "Listings": ""
 },
 "137": {
  "ID": 137,
  "URL": "https://www.pcspecialist.co.uk/forgot/",
  "Title": "PCSPECIALIST - Forgot Password Retrieval Request",
  "Content": "Forgot Password Retrieval Request",
  "Listings": "Forgotten Your Password? "
 }
}